src/binary2bcd_double_dabble-tb.vcd
$date
	Tue Feb 11 04:30:15 2025
$end
$version
	GTKWave Analyzer v3.3.103 (w)1999-2019 BSI
$end
$timescale
	1ps
$end
$scope module tb_top_modeule $end
$var wire 16 ) unpacked_bcd[15:0] $end
$var wire 8 ' packed_bcd[7:0] $end
$var wire 1 " clk $end
$var wire 8 % in_binary[7:0] $end
$var wire 1 ( rst_n $end
$var wire 32 # error $end
$var wire 32 $ i $end
$var wire 32 & j $end
$scope module u_top_modeule $end
$var wire 8 + in_binary[7:0] $end
$var wire 16 - unpacked_bcd[15:0] $end
$var wire 8 , packed_bcd[7:0] $end
$var wire 32 * i $end
$upscope $end
$upscope $end
$enddefinitions $end
#0
$dumpvars
bx $
b0 -
b0 %
b0 )
b0 '
1(
bx &
b0 +
b1000 *
1"
b0 ,
b0 #
$end
#5000
0"
#10000
1"
0(
#15000
0"
#20000
1"
1(
b0 $
b0 &
#25000
b1 &
b1 $
0"
b1 %
b1 -
b1 )
b1 '
b1 +
b1 ,
#30000
1"
#35000
0"
b10 ,
b10 )
b10 &
b10 $
b10 -
b10 %
b10 +
b10 '
#40000
1"
#45000
0"
b11 '
b11 -
b11 )
b11 ,
b11 $
b11 &
b11 +
b11 %
#50000
1"
#55000
0"
b100 %
b100 $
b100 -
b100 '
b100 ,
b100 )
b100 +
b100 &
#60000
1"
#65000
0"
b101 &
b101 ,
b101 $
b101 %
b101 '
b101 -
b101 +
b101 )
#70000
1"
#75000
0"
b110 )
b110 '
b110 ,
b110 &
b110 %
b110 $
b110 +
b110 -
#80000
1"
#85000
0"
b111 -
b111 %
b111 '
b111 )
b111 &
b111 ,
b111 +
b111 $
#90000
1"
#95000
0"
b1000 $
b1000 &
b1000 %
b1000 -
b1000 )
b1000 '
b1000 +
b1000 ,
#100000
1"
#105000
0"
b1001 ,
b1001 )
b1001 &
b1001 $
b1001 -
b1001 %
b1001 +
b1001 '
#110000
1"
#115000
0"
b10000 '
b100000000 -
b100000000 )
b10000 ,
b1010 $
b1010 &
b1010 +
b1010 %
#120000
1"
#125000
0"
b1011 %
b1011 $
b100000001 -
b10001 '
b10001 ,
b100000001 )
b1011 +
b1011 &
#130000
1"
#135000
0"
b1100 &
b10010 ,
b1100 $
b1100 %
b10010 '
b100000010 -
b1100 +
b100000010 )
#140000
1"
#145000
0"
b100000011 )
b10011 '
b10011 ,
b1101 &
b1101 %
b1101 $
b1101 +
b100000011 -
#150000
1"
#155000
0"
b100000100 -
b1110 %
b10100 '
b100000100 )
b1110 &
b10100 ,
b1110 +
b1110 $
#160000
1"
#165000
0"
b1111 $
b1111 &
b1111 %
b100000101 -
b100000101 )
b10101 '
b1111 +
b10101 ,
#170000
1"
#175000
0"
b10110 ,
b100000110 )
b10000 &
b10000 $
b100000110 -
b10000 %
b10000 +
b10110 '
#180000
1"
#185000
0"
b10111 '
b100000111 -
b100000111 )
b10111 ,
b10001 $
b10001 &
b10001 +
b10001 %
#190000
1"
#195000
0"
b10010 %
b10010 $
b100001000 -
b11000 '
b11000 ,
b100001000 )
b10010 +
b10010 &
#200000
1"
#205000
0"
b10011 &
b11001 ,
b10011 $
b10011 %
b11001 '
b100001001 -
b10011 +
b100001001 )
#210000
1"
#215000
0"
b1000000000 )
b100000 '
b100000 ,
b10100 &
b10100 %
b10100 $
b10100 +
b1000000000 -
#220000
1"
#225000
0"
b1000000001 -
b10101 %
b100001 '
b1000000001 )
b10101 &
b100001 ,
b10101 +
b10101 $
#230000
1"
#235000
0"
b10110 $
b10110 &
b10110 %
b1000000010 -
b1000000010 )
b100010 '
b10110 +
b100010 ,
#240000
1"
#245000
0"
b100011 ,
b1000000011 )
b10111 &
b10111 $
b1000000011 -
b10111 %
b10111 +
b100011 '
#250000
1"
#255000
0"
b100100 '
b1000000100 -
b1000000100 )
b100100 ,
b11000 $
b11000 &
b11000 +
b11000 %
#260000
1"
#265000
0"
b11001 %
b11001 $
b1000000101 -
b100101 '
b100101 ,
b1000000101 )
b11001 +
b11001 &
#270000
1"
#275000
0"
b11010 &
b100110 ,
b11010 $
b11010 %
b100110 '
b1000000110 -
b11010 +
b1000000110 )
#280000
1"
#285000
0"
b1000000111 )
b100111 '
b100111 ,
b11011 &
b11011 %
b11011 $
b11011 +
b1000000111 -
#290000
1"
#295000
0"
b1000001000 -
b11100 %
b101000 '
b1000001000 )
b11100 &
b101000 ,
b11100 +
b11100 $
#300000
1"
#305000
0"
b11101 $
b11101 &
b11101 %
b1000001001 -
b1000001001 )
b101001 '
b11101 +
b101001 ,
#310000
1"
#315000
0"
b110000 ,
b1100000000 )
b11110 &
b11110 $
b1100000000 -
b11110 %
b11110 +
b110000 '
#320000
1"
#325000
0"
b110001 '
b1100000001 -
b1100000001 )
b110001 ,
b11111 $
b11111 &
b11111 +
b11111 %
#330000
1"
#335000
0"
b100000 %
b100000 $
b1100000010 -
b110010 '
b110010 ,
b1100000010 )
b100000 +
b100000 &
#340000
1"
#345000
0"
b100001 &
b110011 ,
b100001 $
b100001 %
b110011 '
b1100000011 -
b100001 +
b1100000011 )
#350000
1"
#355000
0"
b1100000100 )
b110100 '
b110100 ,
b100010 &
b100010 %
b100010 $
b100010 +
b1100000100 -
#360000
1"
#365000
0"
b1100000101 -
b100011 %
b110101 '
b1100000101 )
b100011 &
b110101 ,
b100011 +
b100011 $
#370000
1"
#375000
0"
b100100 $
b100100 &
b100100 %
b1100000110 -
b1100000110 )
b110110 '
b100100 +
b110110 ,
#380000
1"
#385000
0"
b110111 ,
b1100000111 )
b100101 &
b100101 $
b1100000111 -
b100101 %
b100101 +
b110111 '
#390000
1"
#395000
0"
b111000 '
b1100001000 -
b1100001000 )
b111000 ,
b100110 $
b100110 &
b100110 +
b100110 %
#400000
1"
#405000
0"
b100111 %
b100111 $
b1100001001 -
b111001 '
b111001 ,
b1100001001 )
b100111 +
b100111 &
#410000
1"
#415000
0"
b101000 &
b1000000 ,
b101000 $
b101000 %
b1000000 '
b10000000000 -
b101000 +
b10000000000 )
#420000
1"
#425000
0"
b10000000001 )
b1000001 '
b1000001 ,
b101001 &
b101001 %
b101001 $
b101001 +
b10000000001 -
#430000
1"
#435000
0"
b10000000010 -
b101010 %
b1000010 '
b10000000010 )
b101010 &
b1000010 ,
b101010 +
b101010 $
#440000
1"
#445000
0"
b101011 $
b101011 &
b101011 %
b10000000011 -
b10000000011 )
b1000011 '
b101011 +
b1000011 ,
#450000
1"
#455000
0"
b1000100 ,
b10000000100 )
b101100 &
b101100 $
b10000000100 -
b101100 %
b101100 +
b1000100 '
#460000
1"
#465000
0"
b1000101 '
b10000000101 -
b10000000101 )
b1000101 ,
b101101 $
b101101 &
b101101 +
b101101 %
#470000
1"
#475000
0"
b101110 %
b101110 $
b10000000110 -
b1000110 '
b1000110 ,
b10000000110 )
b101110 +
b101110 &
#480000
1"
#485000
0"
b101111 &
b1000111 ,
b101111 $
b101111 %
b1000111 '
b10000000111 -
b101111 +
b10000000111 )
#490000
1"
#495000
0"
b10000001000 )
b1001000 '
b1001000 ,
b110000 &
b110000 %
b110000 $
b110000 +
b10000001000 -
#500000
1"
#505000
0"
b10000001001 -
b110001 %
b1001001 '
b10000001001 )
b110001 &
b1001001 ,
b110001 +
b110001 $
#510000
1"
#515000
0"
b110010 $
b110010 &
b110010 %
b10100000000 -
b10100000000 )
b1010000 '
b110010 +
b1010000 ,
#520000
1"
#525000
0"
b1010001 ,
b10100000001 )
b110011 &
b110011 $
b10100000001 -
b110011 %
b110011 +
b1010001 '
#530000
1"
#535000
0"
b1010010 '
b10100000010 -
b10100000010 )
b1010010 ,
b110100 $
b110100 &
b110100 +
b110100 %
#540000
1"
#545000
0"
b110101 %
b110101 $
b10100000011 -
b1010011 '
b1010011 ,
b10100000011 )
b110101 +
b110101 &
#550000
1"
#555000
0"
b110110 &
b1010100 ,
b110110 $
b110110 %
b1010100 '
b10100000100 -
b110110 +
b10100000100 )
#560000
1"
#565000
0"
b10100000101 )
b1010101 '
b1010101 ,
b110111 &
b110111 %
b110111 $
b110111 +
b10100000101 -
#570000
1"
#575000
0"
b10100000110 -
b111000 %
b1010110 '
b10100000110 )
b111000 &
b1010110 ,
b111000 +
b111000 $
#580000
1"
#585000
0"
b111001 $
b111001 &
b111001 %
b10100000111 -
b10100000111 )
b1010111 '
b111001 +
b1010111 ,
#590000
1"
#595000
0"
b1011000 ,
b10100001000 )
b111010 &
b111010 $
b10100001000 -
b111010 %
b111010 +
b1011000 '
#600000
1"
#605000
0"
b1011001 '
b10100001001 -
b10100001001 )
b1011001 ,
b111011 $
b111011 &
b111011 +
b111011 %
#610000
1"
#615000
0"
b111100 %
b111100 $
b11000000000 -
b1100000 '
b1100000 ,
b11000000000 )
b111100 +
b111100 &
#620000
1"
#625000
0"
b111101 &
b1100001 ,
b111101 $
b111101 %
b1100001 '
b11000000001 -
b111101 +
b11000000001 )
#630000
1"
#635000
0"
b11000000010 )
b1100010 '
b1100010 ,
b111110 &
b111110 %
b111110 $
b111110 +
b11000000010 -
#640000
1"
#645000
0"
b11000000011 -
b111111 %
b1100011 '
b11000000011 )
b111111 &
b1100011 ,
b111111 +
b111111 $
#650000
1"
#655000
0"
b1000000 $
b1000000 &
b1000000 %
b11000000100 -
b11000000100 )
b1100100 '
b1000000 +
b1100100 ,
#660000
1"
#665000
0"
b1100101 ,
b11000000101 )
b1000001 &
b1000001 $
b11000000101 -
b1000001 %
b1000001 +
b1100101 '
#670000
1"
#675000
0"
b1100110 '
b11000000110 -
b11000000110 )
b1100110 ,
b1000010 $
b1000010 &
b1000010 +
b1000010 %
#680000
1"
#685000
0"
b1000011 %
b1000011 $
b11000000111 -
b1100111 '
b1100111 ,
b11000000111 )
b1000011 +
b1000011 &
#690000
1"
#695000
0"
b1000100 &
b1101000 ,
b1000100 $
b1000100 %
b1101000 '
b11000001000 -
b1000100 +
b11000001000 )
#700000
1"
#705000
0"
b11000001001 )
b1101001 '
b1101001 ,
b1000101 &
b1000101 %
b1000101 $
b1000101 +
b11000001001 -
#710000
1"
#715000
0"
b11100000000 -
b1000110 %
b1110000 '
b11100000000 )
b1000110 &
b1110000 ,
b1000110 +
b1000110 $
#720000
1"
#725000
0"
b1000111 $
b1000111 &
b1000111 %
b11100000001 -
b11100000001 )
b1110001 '
b1000111 +
b1110001 ,
#730000
1"
#735000
0"
b1110010 ,
b11100000010 )
b1001000 &
b1001000 $
b11100000010 -
b1001000 %
b1001000 +
b1110010 '
#740000
1"
#745000
0"
b1110011 '
b11100000011 -
b11100000011 )
b1110011 ,
b1001001 $
b1001001 &
b1001001 +
b1001001 %
#750000
1"
#755000
0"
b1001010 %
b1001010 $
b11100000100 -
b1110100 '
b1110100 ,
b11100000100 )
b1001010 +
b1001010 &
#760000
1"
#765000
0"
b1001011 &
b1110101 ,
b1001011 $
b1001011 %
b1110101 '
b11100000101 -
b1001011 +
b11100000101 )
#770000
1"
#775000
0"
b11100000110 )
b1110110 '
b1110110 ,
b1001100 &
b1001100 %
b1001100 $
b1001100 +
b11100000110 -
#780000
1"
#785000
0"
b11100000111 -
b1001101 %
b1110111 '
b11100000111 )
b1001101 &
b1110111 ,
b1001101 +
b1001101 $
#790000
1"
#795000
0"
b1001110 $
b1001110 &
b1001110 %
b11100001000 -
b11100001000 )
b1111000 '
b1001110 +
b1111000 ,
#800000
1"
#805000
0"
b1111001 ,
b11100001001 )
b1001111 &
b1001111 $
b11100001001 -
b1001111 %
b1001111 +
b1111001 '
#810000
1"
#815000
0"
b10000000 '
b100000000000 -
b100000000000 )
b10000000 ,
b1010000 $
b1010000 &
b1010000 +
b1010000 %
#820000
1"
#825000
0"
b1010001 %
b1010001 $
b100000000001 -
b10000001 '
b10000001 ,
b100000000001 )
b1010001 +
b1010001 &
#830000
1"
#835000
0"
b1010010 &
b10000010 ,
b1010010 $
b1010010 %
b10000010 '
b100000000010 -
b1010010 +
b100000000010 )
#840000
1"
#845000
0"
b100000000011 )
b10000011 '
b10000011 ,
b1010011 &
b1010011 %
b1010011 $
b1010011 +
b100000000011 -
#850000
1"
#855000
0"
b100000000100 -
b1010100 %
b10000100 '
b100000000100 )
b1010100 &
b10000100 ,
b1010100 +
b1010100 $
#860000
1"
#865000
0"
b1010101 $
b1010101 &
b1010101 %
b100000000101 -
b100000000101 )
b10000101 '
b1010101 +
b10000101 ,
#870000
1"
#875000
0"
b10000110 ,
b100000000110 )
b1010110 &
b1010110 $
b100000000110 -
b1010110 %
b1010110 +
b10000110 '
#880000
1"
#885000
0"
b10000111 '
b100000000111 -
b100000000111 )
b10000111 ,
b1010111 $
b1010111 &
b1010111 +
b1010111 %
#890000
1"
#895000
0"
b1011000 %
b1011000 $
b100000001000 -
b10001000 '
b10001000 ,
b100000001000 )
b1011000 +
b1011000 &
#900000
1"
#905000
0"
b1011001 &
b10001001 ,
b1011001 $
b1011001 %
b10001001 '
b100000001001 -
b1011001 +
b100000001001 )
#910000
1"
#915000
0"
b100100000000 )
b10010000 '
b10010000 ,
b1011010 &
b1011010 %
b1011010 $
b1011010 +
b100100000000 -
#920000
1"
#925000
0"
b100100000001 -
b1011011 %
b10010001 '
b100100000001 )
b1011011 &
b10010001 ,
b1011011 +
b1011011 $
#930000
1"
#935000
0"
b1011100 $
b1011100 &
b1011100 %
b100100000010 -
b100100000010 )
b10010010 '
b1011100 +
b10010010 ,
#940000
1"
#945000
0"
b10010011 ,
b100100000011 )
b1011101 &
b1011101 $
b100100000011 -
b1011101 %
b1011101 +
b10010011 '
#950000
1"
#955000
0"
b10010100 '
b100100000100 -
b100100000100 )
b10010100 ,
b1011110 $
b1011110 &
b1011110 +
b1011110 %
#960000
1"
#965000
0"
b1011111 %
b1011111 $
b100100000101 -
b10010101 '
b10010101 ,
b100100000101 )
b1011111 +
b1011111 &
#970000
1"
#975000
0"
b1100000 &
b10010110 ,
b1100000 $
b1100000 %
b10010110 '
b100100000110 -
b1100000 +
b100100000110 )
#980000
1"
#985000
0"
b100100000111 )
b10010111 '
b10010111 ,
b1100001 &
b1100001 %
b1100001 $
b1100001 +
b100100000111 -
#990000
1"
#995000
0"
b100100001000 -
b1100010 %
b10011000 '
b100100001000 )
b1100010 &
b10011000 ,
b1100010 +
b1100010 $
#1000000
1"
#1005000
0"
b1100011 $
b1100011 &
b1100011 %
b100100001001 -
b100100001001 )
b10011001 '
b1100011 +
b10011001 ,
#1010000
1"
#1015000
0"
b10100000 ,
b101000000000 )
b1100100 &
b1100100 $
b101000000000 -
b1100100 %
b1100100 +
b10100000 '
#1020000
1"
#1025000
0"
b10100001 '
b101000000001 -
b101000000001 )
b10100001 ,
b1100101 $
b1100101 +
b1100101 %
